{
  "mmo": {
    "protocol": "https",
    "hostname": "screeps.com",
    "port": 443,
    "path": "/",
    "branch": "main"
  },
  "development": {
    "protocol": "http",
    "hostname": "localhost",
    "port": 21025,
    "path": "/",
    "branch": "main"
  }
}
